dump.vcd
$date
    Jul 11, 2025  11:58:52
$end
$version
    TOOL:	xmsim	23.09-s001
$end
$timescale
    1 ns
$end

$scope module tb_top_packet_divider $end
$var reg       1 !    clk $end
$var reg       1 "    rst_n $end
$var integer  32 #    freq $end
$var real     64 $    h_time_p $end

$scope task clk_gen $end
$var integer  32 %    freq $end
$var real     64 &    h_time_p $end
$var real     64 '    time_p $end
$var real     64 (    freq_mhz $end
$upscope $end


$scope module reg_vintf $end
$var wire      1 )    clk  $end
$var wire      1 *    rst_n  $end
$var reg       3 +    addr [2:0] $end
$var reg       1 ,    wr $end
$var reg       8 -    wr_data [7:0] $end
$var reg       1 .    rd $end
$var reg       8 /    rd_data [7:0] $end
$var reg       1 0    int_n $end

$scope clocking driver_cb $end
$var reg       3 1    addr [2:0] $end
$var reg       1 2    wr $end
$var reg       8 3    wr_data [7:0] $end
$var reg       1 4    rd $end
$var reg       8 5    rd_data [7:0] $end
$var reg       1 6    int_n $end
$upscope $end


$scope clocking monitor_cb $end
$var reg       3 7    addr [2:0] $end
$var reg       1 8    wr $end
$var reg       8 9    wr_data [7:0] $end
$var reg       1 :    rd $end
$var reg       8 ;    rd_data [7:0] $end
$var reg       1 <    int_n $end
$upscope $end

$upscope $end


$scope begin unmblk1 $end
$var integer  32 =    delay $end
$upscope $end

$upscope $end


$scope module uvm_pkg $end
$var parameter 32 >    UVM_HDL_MAX_WIDTH $end
$var parameter 328 ?    uvm_mgc_copyright $end
$var parameter 336 @    uvm_cdn_copyright $end
$var parameter 224 A    uvm_snps_copyright $end
$var parameter 328 B    uvm_cy_copyright $end
$var parameter 256 C    uvm_nv_copyright $end
$var parameter 200 D    uvm_revision $end
$var reg       1 E    uvm_start_uvm_declarations $end
$var parameter 32 F    UVM_STREAMBITS $end
$var parameter 32 G    UVM_RADIX $end
$var parameter 32 H    UVM_MACRO_NUMFLAGS $end
$var parameter 32 I    UVM_DEFAULT $end
$var parameter 32 J    UVM_ALL_ON $end
$var parameter 32 K    UVM_FLAGS_ON $end
$var parameter 32 L    UVM_FLAGS_OFF $end
$var parameter 32 M    UVM_COPY $end
$var parameter 32 N    UVM_NOCOPY $end
$var parameter 32 O    UVM_COMPARE $end
$var parameter 32 P    UVM_NOCOMPARE $end
$var parameter 32 Q    UVM_PRINT $end
$var parameter 32 R    UVM_NOPRINT $end
$var parameter 32 S    UVM_RECORD $end
$var parameter 32 T    UVM_NORECORD $end
$var parameter 32 U    UVM_PACK $end
$var parameter 32 V    UVM_NOPACK $end
$var parameter 32 W    UVM_PHYSICAL $end
$var parameter 32 X    UVM_ABSTRACT $end
$var parameter 32 Y    UVM_READONLY $end
$var parameter 32 Z    UVM_NODEFPRINT $end
$var parameter 32 [    UVM_MACRO_EXTRAS $end
$var parameter 32 \    UVM_FLAGS $end
$var parameter 32 ]    UVM_UNPACK $end
$var parameter 32 ^    UVM_CHECK_FIELDS $end
$var parameter 32 _    UVM_END_DATA_EXTRA $end
$var parameter 32 `    UVM_START_FUNCS $end
$var parameter 32 a    UVM_SET $end
$var parameter 32 b    UVM_SETINT $end
$var parameter 32 c    UVM_SETOBJ $end
$var parameter 32 d    UVM_SETSTR $end
$var parameter 32 e    UVM_END_FUNCS $end
$var integer  32 f    uvm_global_random_seed $end
$var parameter 32 g    UVM_STR_CRC_POLYNOMIAL $end
$var parameter 32 h    UVM_STDOUT $end
$var parameter 32 i    UVM_LINE_WIDTH $end
$var parameter 32 j    UVM_NUM_LINES $end
$var parameter 32 k    UVM_SMALL_STRING $end
$var parameter 32 l    UVM_LARGE_STRING $end
$var integer  32 m    UVM_UNBOUNDED_CONNECTIONS $end

$scope function uvm_hdl_check_path $end
$var integer  32 n    uvm_hdl_check_path $end
$upscope $end


$scope function uvm_hdl_deposit $end
$var integer  32 o    uvm_hdl_deposit $end
$var reg      1024 p    value [1023:0] $end
$upscope $end


$scope function uvm_hdl_force $end
$var integer  32 q    uvm_hdl_force $end
$var reg      1024 r    value [1023:0] $end
$upscope $end


$scope task uvm_hdl_force_time $end
$var reg      1024 s    value [1023:0] $end
$var time     64 t    force_time $end
$upscope $end


$scope function uvm_hdl_release_and_read $end
$var integer  32 u    uvm_hdl_release_and_read $end
$var reg      1024 v    value [1023:0] $end
$upscope $end


$scope function uvm_hdl_release $end
$var integer  32 w    uvm_hdl_release $end
$upscope $end


$scope function uvm_hdl_read $end
$var integer  32 x    uvm_hdl_read $end
$var reg      1024 y    value [1023:0] $end
$upscope $end


$scope function uvm_dpi_get_next_arg_c $end
$var integer  32 z    init $end
$upscope $end


$scope function uvm_dpi_get_next_arg $end
$var integer  32 {    init $end
$upscope $end


$scope function uvm_dpi_regexec $end
$var integer  32 |    uvm_dpi_regexec $end
$upscope $end


$scope function uvm_re_match $end
$var integer  32 }    uvm_re_match $end
$upscope $end


$scope function uvm_regcomp $end
$var reg      64 ~    uvm_regcomp [63:0] $end
$upscope $end


$scope function uvm_regexec $end
$var integer  32 !!   uvm_regexec $end
$var reg      64 "!   re [63:0] $end
$var integer  32 #!   nmatch $end
$var reg      64 $!   ptr [63:0] $end
$var integer  32 %!   eflags $end
$upscope $end


$scope task uvm_regfree $end
$var reg      64 &!   re [63:0] $end
$upscope $end


$scope function uvm_radix_to_string $end
$var reg      32 '!   radix [31:0] $end
$upscope $end


$scope function uvm_instance_scope $end
$var reg       8 (!   c [7:0] $end
$var integer  32 )!   pos $end
$upscope $end


$scope function uvm_oneway_hash $end
$var integer  32 *!   uvm_oneway_hash $end
$var integer  32 +!   seed $end
$var reg       1 ,!   msb $end
$var reg       8 -!   current_byte [7:0] $end
$var reg      32 .!   crc1 [31:0] $end
$upscope $end


$scope function uvm_create_random_seed $end
$var integer  32 /!   uvm_create_random_seed $end
$upscope $end


$scope function uvm_leaf_scope $end
$var reg       8 0!   scope_separator [7:0] $end
$var reg       8 1!   bracket_match [7:0] $end
$var integer  32 2!   pos $end
$var integer  32 3!   bmatches $end
$upscope $end


$scope function uvm_bitstream_to_string $end
$var reg      4096 4!   value [4095:0] $end
$var integer  32 5!   size $end
$var reg      32 6!   radix [31:0] $end

$scope begin unmblk1 $end
$var reg      4096 7!   _t [4095:0] $end
$upscope $end

$upscope $end


$scope function uvm_integral_to_string $end
$var reg      64 8!   value [63:0] $end
$var integer  32 9!   size $end
$var reg      32 :!   radix [31:0] $end

$scope begin unmblk1 $end
$var reg      64 ;!   _t [63:0] $end
$upscope $end

$upscope $end


$scope function uvm_vector_to_string $end
$var reg      4096 <!   value [4095:0] $end
$var integer  32 =!   size $end
$var reg      32 >!   radix [31:0] $end
$upscope $end


$scope function uvm_get_array_index_int $end
$var integer  32 ?!   uvm_get_array_index_int $end
$var reg       1 @!   is_wildcard $end
$var integer  32 A!   i $end
$upscope $end


$scope function uvm_get_array_index_string $end
$var reg       1 B!   is_wildcard $end
$var integer  32 C!   i $end
$upscope $end


$scope function uvm_is_array $end
$var reg       1 D!   uvm_is_array $end
$upscope $end


$scope task set_global_timeout $end
$var time     64 E!   timeout $end
$var reg       1 F!   overridable $end
$upscope $end


$scope task set_global_stop_timeout $end
$var time     64 G!   timeout $end
$upscope $end


$scope function uvm_report_enabled $end
$var integer  32 H!   uvm_report_enabled $end
$var integer  32 I!   verbosity $end
$var reg       2 J!   severity [1:0] $end
$upscope $end


$scope task uvm_report $end
$var reg       2 K!   severity [1:0] $end
$var integer  32 L!   verbosity $end
$var integer  32 M!   line $end
$var reg       1 N!   report_enabled_checked $end
$upscope $end


$scope task m__uvm_report_dpi $end
$var integer  32 O!   severity $end
$var integer  32 P!   verbosity $end
$var integer  32 Q!   line $end
$upscope $end


$scope task uvm_report_info $end
$var integer  32 R!   verbosity $end
$var integer  32 S!   line $end
$var reg       1 T!   report_enabled_checked $end
$upscope $end


$scope task uvm_report_warning $end
$var integer  32 U!   verbosity $end
$var integer  32 V!   line $end
$var reg       1 W!   report_enabled_checked $end
$upscope $end


$scope task uvm_report_error $end
$var integer  32 X!   verbosity $end
$var integer  32 Y!   line $end
$var reg       1 Z!   report_enabled_checked $end
$upscope $end


$scope task uvm_report_fatal $end
$var integer  32 [!   verbosity $end
$var integer  32 \!   line $end
$var reg       1 ]!   report_enabled_checked $end
$upscope $end


$scope function uvm_string_to_severity $end
$var reg       1 ^!   uvm_string_to_severity $end
$var reg       2 _!   sev [1:0] $end
$upscope $end


$scope task set_config_int $end
$var reg      4096 `!   value [4095:0] $end
$upscope $end


$scope task set_config_object $end
$var reg       1 a!   clone $end
$upscope $end


$scope function uvm_is_match $end
$var reg       1 b!   uvm_is_match $end
$upscope $end


$scope task uvm_wait_for_nba_region $end
$var integer  32 c!   nba $end
$var integer  32 d!   next_nba $end
$upscope $end

$upscope $end

$enddefinitions $end
$dumpvars
b11100000111111111 l
b1110111111 k
b1111000 j
b1111000 i
b1 h
b100110000010001110110110110 g
b100000000000001000 e
b100000000000001000 d
b100000000000000111 c
b100000000000000110 b
b100000000000000110 a
b100000000000000101 `
b100000000000000100 _
b100000000000000011 ^
b100000000000000010 ]
b100000000000000001 \
b100000000000000000 [
b10000000000000000 Z
b1000000000000000 Y
b100000000000000 X
b10000000000000 W
b1000000000 V
b100000000 U
b10000000 T
b1000000 S
b100000 R
b10000 Q
b1000 P
b100 O
b10 N
b1 M
b0 L
b101010101 K
b101010101 J
b10101010101 I
b10001 H
b1111000000000000000000000000 G
b1000000000000 F
b1011100000000000000000000000000000z110000000000000000000000000001011000000000000000000000000000000z110000000000000000000000000001010100000000000000000000000000000z1100000000000000000000000000001101 D
b0z110000000000000000000000000001011000000000000000000000000000000z110000000000000000000000000001010100000000000000000000000000000z110000000000000000000000000000110100000000000000000000000000000z1100000000000000000000000000001100 C
b1011100000000000000000000000000000z110000000000000000000000000001011000000000000000000000000000000z110000000000000000000000000001010100000000000000000000000000000z110000000000000000000000000000110100000000000000000000000000000z110000000000000000000000000000110000000000000000000000000000000z1100000000000000000000000000001011 B
b110100000000000000000000000000000z110000000000000000000000000000110000000000000000000000000000000z110000000000000000000000000000101100000000000000000000000000000z1100000000000000000000000000001010 A
b1010100000000000000000000000000000z110000000000000000000000000000110100000000000000000000000000000z110000000000000000000000000000110000000000000000000000000000000z110000000000000000000000000000101100000000000000000000000000000z110000000000000000000000000000101000000000000000000000000000000z1100000000000000000000000000001001 @
b110100000000000000000000000000000z110000000000000000000000000000110000000000000000000000000000000z110000000000000000000000000000101100000000000000000000000000000z110000000000000000000000000000101000000000000000000000000000000z110000000000000000000000000000100100000000000000000000000000000z1100000000000000000000000000001000 ?
b10000000000 >
0!
1"
b1100 #
r41.66666666666667 $
b1100 %
r41.66666666666667 &
r83.33333333333334 '
r12000000 (
0)
1*
bx +
x,
bx -
x.
b1001111 /
x0
bx 1
x2
bx 3
x4
bx 5
x6
bx 7
x8
bx 9
x:
bx ;
x<
b100101100 =
1E
b101011011100011001010010100011 f
b11111111111111111111111111111111 m
b0 n
b0 o
bx p
b0 q
bx r
bx s
bx t
b0 u
bx v
b0 w
b0 x
bx y
b0 z
b0 {
b0 |
b0 }
b0 ~
b0 !!
b0 "!
b0 #!
b0 $!
b0 %!
b0 &!
b0 '!
b111010 (!
b1000 )!
b101010100010011100011111001100 *!
b101011011100011001010010100011 +!
0,!
b1110001 -!
b11010110110011001110011100000000 .!
b11111000110000101101011001010111 /!
b101110 0!
b0 1!
b11000 2!
b11111111111111111111111111111111 3!
bx 4!
b0 5!
b0 6!
bx 7!
b1 8!
b100000 9!
b10000000000000000000000000 :!
bx ;!
bx <!
b0 =!
b0 >!
b0 ?!
0@!
b0 A!
0B!
b0 C!
0D!
bx E!
0F!
bx G!
b0 H!
b111110100 I!
b0 J!
b0 K!
b0 L!
b0 M!
0N!
b0 O!
b0 P!
b0 Q!
b0 R!
b11001101101 S!
1T!
b0 U!
b0 V!
0W!
b0 X!
b0 Y!
0Z!
b0 [!
b0 \!
0]!
0^!
b0 _!
bx `!
0a!
1b!
b100011 c!
b100011 d!
$end
#42
1!
1)
b1001111 ;
b1001111 5
#50
b11111111 /
#60
0"
0*
#84
0!
0)
#126
1!
1)
b11111111 ;
b11111111 5
b0 +
b0 1
0,
02
b0 -
b0 3
0.
04
#168
0!
0)
#210
1!
1)
b0 7
08
b0 9
0:
#252
0!
0)
#294
1!
1)
#336
0!
0)
#350
1"
1*
b100100 d!
b100100 c!
#378
1!
1)
b101 +
b101 1
b1111011 -
b1111011 3
1.
14
#420
0!
0)
#462
1!
1)
b0 3!
b10 2!
b1 2!
b0 2!
b101 8!
b11 9!
b111000000000000000000000000 :!
b111 2!
b110 2!
b101 2!
b100 2!
b11 2!
b11111111111111111111111111111111 3!
b0 8!
b1 9!
b0 3!
b101 2!
b100 2!
b11 2!
b11111111111111111111111111111111 3!
b1111011 8!
b1000 9!
b0 3!
b1010 2!
b1001 2!
b1000 2!
b111 2!
b110 2!
b101 2!
b100 2!
b11 2!
b11111111111111111111111111111111 3!
b1 8!
b1 9!
b0 3!
b101 2!
b100 2!
b11 2!
b11111111111111111111111111111111 3!
b11111111 8!
b1000 9!
b0 3!
b1010 2!
b1001 2!
b1000 2!
b111 2!
b110 2!
b101 2!
b100 2!
b11 2!
b11111111111111111111111111111111 3!
b110000 8!
b0 3!
b1100 2!
b1011 2!
b1010 2!
b1001 2!
b1000 2!
b111 2!
b110 2!
b101 2!
b100 2!
b11 2!
b11111111111111111111111111111111 3!
b1001011 8!
b0 3!
b1111 2!
b1110 2!
b1101 2!
b1100 2!
b1011 2!
b1010 2!
b1001 2!
b1000 2!
b111 2!
b110 2!
b101 2!
b100 2!
b11 2!
b11111111111111111111111111111111 3!
b0 3!
b111 2!
b110 2!
b101 2!
b100 2!
b11 2!
b11111111111111111111111111111111 3!
b1 8!
b1 9!
b0 3!
b110 2!
b101 2!
b100 2!
b11 2!
b11111111111111111111111111111111 3!
b101011110 8!
b1000000 9!
b1001000000000000000000000000 :!
b0 3!
b1101 2!
b1100 2!
b1011 2!
b1010 2!
b1001 2!
b1000 2!
b111 2!
b110 2!
b101 2!
b100 2!
b11 2!
b11111111111111111111111111111111 3!
b10 8!
b100000 9!
b10000000000000000000000000 :!
b0 3!
b1000 2!
b111 2!
b110 2!
b101 2!
b100 2!
b11 2!
b11111111111111111111111111111111 3!
b0 3!
b11001 2!
b11000 2!
b10111 2!
b10110 2!
b10101 2!
b10100 2!
b10011 2!
b10010 2!
b10001 2!
b10000 2!
b1111 2!
b1110 2!
b1101 2!
b1100 2!
b1011 2!
b1010 2!
b1001 2!
b1000 2!
b111 2!
b110 2!
b101 2!
b100 2!
b11 2!
b11111111111111111111111111111111 3!
b0 3!
b11110 2!
b11101 2!
b11100 2!
b11011 2!
b11010 2!
b11001 2!
b11000 2!
b10111 2!
b10110 2!
b10101 2!
b10100 2!
b10011 2!
b10010 2!
b10001 2!
b10000 2!
b1111 2!
b1110 2!
b1101 2!
b1100 2!
b1011 2!
b1010 2!
b1001 2!
b1000 2!
b111 2!
b110 2!
b101 2!
b100 2!
b11 2!
b11111111111111111111111111111111 3!
b0 3!
b1100 2!
b1011 2!
b1010 2!
b1001 2!
b1000 2!
b111 2!
b110 2!
b101 2!
b100 2!
b11 2!
b11111111111111111111111111111111 3!
b100101 d!
b101 7
b1111011 9
1:
b101010100010011100011111001101 /!
b100101 c!
0.
04
#504
0!
0)
#546
1!
1)
b0 3!
b1110 2!
b1101 2!
b1100 2!
b1011 2!
b1010 2!
b1001 2!
b1000 2!
b111 2!
b110 2!
b101 2!
b100 2!
b11 2!
b10 2!
b1 2!
b0 2!
b101 8!
b11 9!
b111000000000000000000000000 :!
b10011 2!
b10010 2!
b10001 2!
b10000 2!
b1111 2!
b11111111111111111111111111111111 3!
b0 8!
b1 9!
b0 3!
b10001 2!
b10000 2!
b1111 2!
b11111111111111111111111111111111 3!
b1111011 8!
b1000 9!
b0 3!
b10110 2!
b10101 2!
b10100 2!
b10011 2!
b10010 2!
b10001 2!
b10000 2!
b1111 2!
b11111111111111111111111111111111 3!
b1 8!
b1 9!
b0 3!
b10001 2!
b10000 2!
b1111 2!
b11111111111111111111111111111111 3!
b11111111 8!
b1000 9!
b0 3!
b10110 2!
b10101 2!
b10100 2!
b10011 2!
b10010 2!
b10001 2!
b10000 2!
b1111 2!
b11111111111111111111111111111111 3!
b0 8!
b0 3!
b11000 2!
b10111 2!
b10110 2!
b10101 2!
b10100 2!
b10011 2!
b10010 2!
b10001 2!
b10000 2!
b1111 2!
b11111111111111111111111111111111 3!
b0 3!
b11011 2!
b11010 2!
b11001 2!
b11000 2!
b10111 2!
b10110 2!
b10101 2!
b10100 2!
b10011 2!
b10010 2!
b10001 2!
b10000 2!
b1111 2!
b11111111111111111111111111111111 3!
b0 3!
b10011 2!
b10010 2!
b10001 2!
b10000 2!
b1111 2!
b11111111111111111111111111111111 3!
b1 9!
b0 3!
b10010 2!
b10001 2!
b10000 2!
b1111 2!
b11111111111111111111111111111111 3!
b0 3!
b1110 2!
b1101 2!
b1100 2!
b1011 2!
b1010 2!
b1001 2!
b1000 2!
b111 2!
b110 2!
b101 2!
b100 2!
b11 2!
b10 2!
b1 2!
b0 2!
b101 8!
b11 9!
b10011 2!
b10010 2!
b10001 2!
b10000 2!
b1111 2!
b11111111111111111111111111111111 3!
b0 8!
b1 9!
b0 3!
b10001 2!
b10000 2!
b1111 2!
b11111111111111111111111111111111 3!
b1111011 8!
b1000 9!
b0 3!
b10110 2!
b10101 2!
b10100 2!
b10011 2!
b10010 2!
b10001 2!
b10000 2!
b1111 2!
b11111111111111111111111111111111 3!
b1 8!
b1 9!
b0 3!
b10001 2!
b10000 2!
b1111 2!
b11111111111111111111111111111111 3!
b11111111 8!
b1000 9!
b0 3!
b10110 2!
b10101 2!
b10100 2!
b10011 2!
b10010 2!
b10001 2!
b10000 2!
b1111 2!
b11111111111111111111111111111111 3!
b0 8!
b0 3!
b11000 2!
b10111 2!
b10110 2!
b10101 2!
b10100 2!
b10011 2!
b10010 2!
b10001 2!
b10000 2!
b1111 2!
b11111111111111111111111111111111 3!
b0 3!
b11011 2!
b11010 2!
b11001 2!
b11000 2!
b10111 2!
b10110 2!
b10101 2!
b10100 2!
b10011 2!
b10010 2!
b10001 2!
b10000 2!
b1111 2!
b11111111111111111111111111111111 3!
b0 3!
b10011 2!
b10010 2!
b10001 2!
b10000 2!
b1111 2!
b11111111111111111111111111111111 3!
b1 9!
b0 3!
b10010 2!
b10001 2!
b10000 2!
b1111 2!
b11111111111111111111111111111111 3!
0:
b10110001 -
b10110001 3
1.
14
#550
b1111000 /
#588
0!
0)
#630
1!
1)
b0 3!
b10 2!
b1 2!
b0 2!
b101 8!
b11 9!
b111 2!
b110 2!
b101 2!
b100 2!
b11 2!
b11111111111111111111111111111111 3!
b0 8!
b1 9!
b0 3!
b101 2!
b100 2!
b11 2!
b11111111111111111111111111111111 3!
b10110001 8!
b1000 9!
b0 3!
b1010 2!
b1001 2!
b1000 2!
b111 2!
b110 2!
b101 2!
b100 2!
b11 2!
b11111111111111111111111111111111 3!
b1 8!
b1 9!
b0 3!
b101 2!
b100 2!
b11 2!
b11111111111111111111111111111111 3!
b11111111 8!
b1000 9!
b0 3!
b1010 2!
b1001 2!
b1000 2!
b111 2!
b110 2!
b101 2!
b100 2!
b11 2!
b11111111111111111111111111111111 3!
b10111010 8!
b0 3!
b1100 2!
b1011 2!
b1010 2!
b1001 2!
b1000 2!
b111 2!
b110 2!
b101 2!
b100 2!
b11 2!
b11111111111111111111111111111111 3!
b1000101 8!
b0 3!
b1111 2!
b1110 2!
b1101 2!
b1100 2!
b1011 2!
b1010 2!
b1001 2!
b1000 2!
b111 2!
b110 2!
b101 2!
b100 2!
b11 2!
b11111111111111111111111111111111 3!
b0 3!
b111 2!
b110 2!
b101 2!
b100 2!
b11 2!
b11111111111111111111111111111111 3!
b1 8!
b1 9!
b0 3!
b110 2!
b101 2!
b100 2!
b11 2!
b11111111111111111111111111111111 3!
b111001110 8!
b1000000 9!
b1001000000000000000000000000 :!
b0 3!
b1101 2!
b1100 2!
b1011 2!
b1010 2!
b1001 2!
b1000 2!
b111 2!
b110 2!
b101 2!
b100 2!
b11 2!
b11111111111111111111111111111111 3!
b10 8!
b100000 9!
b10000000000000000000000000 :!
b0 3!
b1000 2!
b111 2!
b110 2!
b101 2!
b100 2!
b11 2!
b11111111111111111111111111111111 3!
b0 3!
b11001 2!
b11000 2!
b10111 2!
b10110 2!
b10101 2!
b10100 2!
b10011 2!
b10010 2!
b10001 2!
b10000 2!
b1111 2!
b1110 2!
b1101 2!
b1100 2!
b1011 2!
b1010 2!
b1001 2!
b1000 2!
b111 2!
b110 2!
b101 2!
b100 2!
b11 2!
b11111111111111111111111111111111 3!
b0 3!
b11110 2!
b11101 2!
b11100 2!
b11011 2!
b11010 2!
b11001 2!
b11000 2!
b10111 2!
b10110 2!
b10101 2!
b10100 2!
b10011 2!
b10010 2!
b10001 2!
b10000 2!
b1111 2!
b1110 2!
b1101 2!
b1100 2!
b1011 2!
b1010 2!
b1001 2!
b1000 2!
b111 2!
b110 2!
b101 2!
b100 2!
b11 2!
b11111111111111111111111111111111 3!
b0 3!
b1100 2!
b1011 2!
b1010 2!
b1001 2!
b1000 2!
b111 2!
b110 2!
b101 2!
b100 2!
b11 2!
b11111111111111111111111111111111 3!
b100110 d!
b10110001 9
1:
b1111000 ;
b1111000 5
b101010100010011100011111001111 /!
b100110 c!
0.
04
#672
0!
0)
#714
1!
1)
b0 3!
b1110 2!
b1101 2!
b1100 2!
b1011 2!
b1010 2!
b1001 2!
b1000 2!
b111 2!
b110 2!
b101 2!
b100 2!
b11 2!
b10 2!
b1 2!
b0 2!
b101 8!
b11 9!
b111000000000000000000000000 :!
b10011 2!
b10010 2!
b10001 2!
b10000 2!
b1111 2!
b11111111111111111111111111111111 3!
b0 8!
b1 9!
b0 3!
b10001 2!
b10000 2!
b1111 2!
b11111111111111111111111111111111 3!
b10110001 8!
b1000 9!
b0 3!
b10110 2!
b10101 2!
b10100 2!
b10011 2!
b10010 2!
b10001 2!
b10000 2!
b1111 2!
b11111111111111111111111111111111 3!
b1 8!
b1 9!
b0 3!
b10001 2!
b10000 2!
b1111 2!
b11111111111111111111111111111111 3!
b1111000 8!
b1000 9!
b0 3!
b10110 2!
b10101 2!
b10100 2!
b10011 2!
b10010 2!
b10001 2!
b10000 2!
b1111 2!
b11111111111111111111111111111111 3!
b0 8!
b0 3!
b11000 2!
b10111 2!
b10110 2!
b10101 2!
b10100 2!
b10011 2!
b10010 2!
b10001 2!
b10000 2!
b1111 2!
b11111111111111111111111111111111 3!
b0 3!
b11011 2!
b11010 2!
b11001 2!
b11000 2!
b10111 2!
b10110 2!
b10101 2!
b10100 2!
b10011 2!
b10010 2!
b10001 2!
b10000 2!
b1111 2!
b11111111111111111111111111111111 3!
b0 3!
b10011 2!
b10010 2!
b10001 2!
b10000 2!
b1111 2!
b11111111111111111111111111111111 3!
b1 9!
b0 3!
b10010 2!
b10001 2!
b10000 2!
b1111 2!
b11111111111111111111111111111111 3!
b0 3!
b1110 2!
b1101 2!
b1100 2!
b1011 2!
b1010 2!
b1001 2!
b1000 2!
b111 2!
b110 2!
b101 2!
b100 2!
b11 2!
b10 2!
b1 2!
b0 2!
b101 8!
b11 9!
b10011 2!
b10010 2!
b10001 2!
b10000 2!
b1111 2!
b11111111111111111111111111111111 3!
b0 8!
b1 9!
b0 3!
b10001 2!
b10000 2!
b1111 2!
b11111111111111111111111111111111 3!
b10110001 8!
b1000 9!
b0 3!
b10110 2!
b10101 2!
b10100 2!
b10011 2!
b10010 2!
b10001 2!
b10000 2!
b1111 2!
b11111111111111111111111111111111 3!
b1 8!
b1 9!
b0 3!
b10001 2!
b10000 2!
b1111 2!
b11111111111111111111111111111111 3!
b1111000 8!
b1000 9!
b0 3!
b10110 2!
b10101 2!
b10100 2!
b10011 2!
b10010 2!
b10001 2!
b10000 2!
b1111 2!
b11111111111111111111111111111111 3!
b0 8!
b0 3!
b11000 2!
b10111 2!
b10110 2!
b10101 2!
b10100 2!
b10011 2!
b10010 2!
b10001 2!
b10000 2!
b1111 2!
b11111111111111111111111111111111 3!
b0 3!
b11011 2!
b11010 2!
b11001 2!
b11000 2!
b10111 2!
b10110 2!
b10101 2!
b10100 2!
b10011 2!
b10010 2!
b10001 2!
b10000 2!
b1111 2!
b11111111111111111111111111111111 3!
b0 3!
b10011 2!
b10010 2!
b10001 2!
b10000 2!
b1111 2!
b11111111111111111111111111111111 3!
b1 9!
b0 3!
b10010 2!
b10001 2!
b10000 2!
b1111 2!
b11111111111111111111111111111111 3!
0:
b11010100 -
b11010100 3
1.
14
#756
0!
0)
#798
1!
1)
b0 3!
b10 2!
b1 2!
b0 2!
b101 8!
b11 9!
b111 2!
b110 2!
b101 2!
b100 2!
b11 2!
b11111111111111111111111111111111 3!
b0 8!
b1 9!
b0 3!
b101 2!
b100 2!
b11 2!
b11111111111111111111111111111111 3!
b11010100 8!
b1000 9!
b0 3!
b1010 2!
b1001 2!
b1000 2!
b111 2!
b110 2!
b101 2!
b100 2!
b11 2!
b11111111111111111111111111111111 3!
b1 8!
b1 9!
b0 3!
b101 2!
b100 2!
b11 2!
b11111111111111111111111111111111 3!
b1111000 8!
b1000 9!
b0 3!
b1010 2!
b1001 2!
b1000 2!
b111 2!
b110 2!
b101 2!
b100 2!
b11 2!
b11111111111111111111111111111111 3!
b1010000 8!
b0 3!
b1100 2!
b1011 2!
b1010 2!
b1001 2!
b1000 2!
b111 2!
b110 2!
b101 2!
b100 2!
b11 2!
b11111111111111111111111111111111 3!
b111000 8!
b0 3!
b1111 2!
b1110 2!
b1101 2!
b1100 2!
b1011 2!
b1010 2!
b1001 2!
b1000 2!
b111 2!
b110 2!
b101 2!
b100 2!
b11 2!
b11111111111111111111111111111111 3!
b0 3!
b111 2!
b110 2!
b101 2!
b100 2!
b11 2!
b11111111111111111111111111111111 3!
b1 8!
b1 9!
b0 3!
b110 2!
b101 2!
b100 2!
b11 2!
b11111111111111111111111111111111 3!
b1001110110 8!
b1000000 9!
b1001000000000000000000000000 :!
b0 3!
b1101 2!
b1100 2!
b1011 2!
b1010 2!
b1001 2!
b1000 2!
b111 2!
b110 2!
b101 2!
b100 2!
b11 2!
b11111111111111111111111111111111 3!
b10 8!
b100000 9!
b10000000000000000000000000 :!
b0 3!
b1000 2!
b111 2!
b110 2!
b101 2!
b100 2!
b11 2!
b11111111111111111111111111111111 3!
b0 3!
b11001 2!
b11000 2!
b10111 2!
b10110 2!
b10101 2!
b10100 2!
b10011 2!
b10010 2!
b10001 2!
b10000 2!
b1111 2!
b1110 2!
b1101 2!
b1100 2!
b1011 2!
b1010 2!
b1001 2!
b1000 2!
b111 2!
b110 2!
b101 2!
b100 2!
b11 2!
b11111111111111111111111111111111 3!
b0 3!
b11110 2!
b11101 2!
b11100 2!
b11011 2!
b11010 2!
b11001 2!
b11000 2!
b10111 2!
b10110 2!
b10101 2!
b10100 2!
b10011 2!
b10010 2!
b10001 2!
b10000 2!
b1111 2!
b1110 2!
b1101 2!
b1100 2!
b1011 2!
b1010 2!
b1001 2!
b1000 2!
b111 2!
b110 2!
b101 2!
b100 2!
b11 2!
b11111111111111111111111111111111 3!
b0 3!
b1100 2!
b1011 2!
b1010 2!
b1001 2!
b1000 2!
b111 2!
b110 2!
b101 2!
b100 2!
b11 2!
b11111111111111111111111111111111 3!
b100111 d!
b11010100 9
1:
b101010100010011100011111010010 /!
b100111 c!
0.
04
#840
0!
0)
